{
  "contacts": [
    {
      "_id": 1,
      "name": "Jack",
      "phone": "123"
    },
    {
      "_id": 2,
      "name": "Jill",
      "phone": "456"
    },
    {
      "_id": 3,
      "name": "Mary",
      "phone": "789"
    },
    {
      "name": "aa",
      "phone": "11",
      "_id": 4
    },
    {
      "name": "bb",
      "phone": "22",
      "_id": 5
    },
    {
      "name": "sdfgdsf",
      "phone": "34535",
      "_id": 6
    },
    {
      "_id": 7,
      "name": "ddd",
      "phone": "444555"
    },
    {
      "_id": 9,
      "name": "andrei",
      "phone": "12345678"
    },
    {
      "name": "1521832476199",
      "_id": 13
    },
    {
      "name": "1521833373859",
      "_id": 14
    },
    {
      "name": "1521833414392",
      "_id": 15
    },
    {
      "name": "1521833521559",
      "_id": 16
    },
    {
      "name": "1521833587122",
      "phone": "1521833587123",
      "_id": 17
    },
    {
      "name": "1521833612780",
      "_id": 18
    },
    {
      "name": "1521833640113",
      "_id": 19
    },
    {
      "name": "1521833833061",
      "_id": 20
    },
    {
      "name": "1521833912175",
      "_id": 21
    },
    {
      "_id": 22,
      "name": "1521833947440"
    },
    {
      "name": "1521833979311",
      "_id": 23
    },
    {
      "name": "1521834057474",
      "_id": 24
    },
    {
      "name": "Jaana",
      "_id": 25
    },
    {
      "name": "Jaak",
      "_id": 26
    },
    {
      "name": "Tiit",
      "phone": "aa",
      "_id": 27
    },
    {
      "name": "Tiina",
      "_id": 28
    },
    {
      "name": "Jaana",
      "_id": 29
    },
    {
      "name": "Jaak",
      "_id": 30
    },
    {
      "name": "Tiit",
      "phone": "aa",
      "_id": 31
    },
    {
      "name": "Tiina",
      "_id": 32
    },
    {
      "name": "1521834201188",
      "phone": "1521834201189",
      "_id": 33
    },
    {
      "name": "1521834202104",
      "_id": 34
    },
    {
      "_id": 35,
      "name": "1521834204745"
    },
    {
      "name": "1521834207155",
      "_id": 36
    },
    {
      "name": "Jaana",
      "_id": 37
    },
    {
      "name": "Jaak",
      "_id": 38
    },
    {
      "name": "Tiit",
      "phone": "aa",
      "_id": 39
    },
    {
      "name": "Tiina",
      "_id": 40
    },
    {
      "name": "puandr",
      "phone": "1234567",
      "_id": 41
    }
  ]
}